[
  {
    "id": 1,
    "persona": "fisica",
    "nombre": "Pablo",
    "apPaterno": "Gulias",
    "apMaterno": "Gonzalez",
    "rfc": "XXXXXXXXXXX",
    "fecNac": "01/01/2010",
    "edoCivil": "soltero",
    "nacionalidad": "mexicano",
    "ocup": "ingeniero",
    "gender": "0",
    "tel": "123456789",
    "email": "prueba@grupordas.com.mx",
    "accPlac": "1",
	"direccionCliente": [
		{
			"tipDirec": "Particular",
			"calle": "Andador Allende",
			"tipDirec": "Particular",
			"numero": "1",
			"cp": "55040",
			"col": "Zurich",
			"delMun": "Miguel Hidalgo",
			"estado": "Mexico",
			"tel": "55151288212"
		}
    ],
	"contacGo": [
		{
			"id": "1",
			"nombre": "Ivan",
			"apPaterno": "Perez",
			"apMaterno": "Rivero",
			"rfc": "XXXXXX",
			"direccionContacto": [
				{
					"tipDirec": "Particular",
					"calle": "Andador Allende",
					"tipDirec": "Particular",
					"numero": "1",
					"cp": "55040",
					"col": "Zurich",
					"delMun": "Miguel Hidalgo",
					"estado": "Mexico",
					"tel": "55151288212"
				}
			]
		}
    ],
	"documentsGo": [
		{
			"id": "1",
			"fileNombre": "documento1",
			"filePath": "C%3A%5CUsers%5Ciperez.SERVER_ORDAS%5CDocuments%5CVarios%5C3AKBBXCS45DN63584.pdf",
			"activeFile": "1"
		},
		{
			"id": "2",
			"fileNombre": "documento2",
			"filePath": "C%3A%5CUsers%5Ciperez.SERVER_ORDAS%5CDocuments%5CVarios%5C3AKBBXCS45DN63584.pdf",
			"activeFile": "1"
		},
		{
			"id": "3",
			"fileNombre": "documento3",
			"filePath": "C%3A%5CUsers%5Ciperez.SERVER_ORDAS%5CDocuments%5CVarios%5C3AKBBXCS45DN63584.pdf",
			"activeFile": "1"
		},
		{
			"id": "4",
			"fileNombre": "documento4",
			"filePath": "C%3A%5CUsers%5Ciperez.SERVER_ORDAS%5CDocuments%5CVarios%5C3AKBBXCS45DN63584.pdf",
			"activeFile": "1"
		},
		{
			"id": "5",
			"fileNombre": "documento5",
			"filePath": "C%3A%5CUsers%5Ciperez.SERVER_ORDAS%5CDocuments%5CVarios%5C3AKBBXCS45DN63584.pdf",
			"activeFile": "1"
		}
	]
  },
   {
    "id": 2,
    "persona": "Moral",
    "nombre": "MARTHA JOSEFA",
    "apPaterno": "HERRERA ",
    "apMaterno": "VILLARREAL",
    "rfc": "XXXXXXXXXXX",
    "fecNac": "01/01/2010",
    "edoCivil": "soltero",
    "nacionalidad": "mexicano",
    "ocup": "ingeniero",
    "gender": "1",
    "tel": "123456789",
    "email": "prueba@grupordas.com.mx",
    "accPlac": "1",
	"direccionCliente": [
		{
			"tipDirec": "Particular",
			"calle": "Andador Allende",
			"tipDirec": "Particular",
			"numero": "1",
			"cp": "55040",
			"col": "Zurich",
			"delMun": "Miguel Hidalgo",
			"estado": "Mexico",
			"tel": "55151288212"
		}
    ],
	"contacGo": [
		{
			"id": "1",
			"nombre": "Ivan",
			"apPaterno": "Perez",
			"apMaterno": "Rivero",
			"rfc": "XXXXXX",
			"direccionContacto": [
				{
					"tipDirec": "Particular",
					"calle": "Andador Allende",
					"tipDirec": "Particular",
					"numero": "1",
					"cp": "55040",
					"col": "Zurich",
					"delMun": "Miguel Hidalgo",
					"estado": "Mexico",
					"tel": "55151288212"
				}
			]
		}
    ],
	"documentsGo": [
		{
			"id": "1",
			"fileNombre": "documento1",
			"filePath": "C%3A%5CUsers%5Ciperez.SERVER_ORDAS%5CDocuments%5CVarios%5C3AKBBXCS45DN63584.pdf",
			"activeFile": "1"
		},
		{
			"id": "2",
			"fileNombre": "documento2",
			"filePath": "C%3A%5CUsers%5Ciperez.SERVER_ORDAS%5CDocuments%5CVarios%5C3AKBBXCS45DN63584.pdf",
			"activeFile": "1"
		},
		{
			"id": "3",
			"fileNombre": "documento3",
			"filePath": "C%3A%5CUsers%5Ciperez.SERVER_ORDAS%5CDocuments%5CVarios%5C3AKBBXCS45DN63584.pdf",
			"activeFile": "1"
		},
		{
			"id": "4",
			"fileNombre": "documento4",
			"filePath": "C%3A%5CUsers%5Ciperez.SERVER_ORDAS%5CDocuments%5CVarios%5C3AKBBXCS45DN63584.pdf",
			"activeFile": "1"
		},
		{
			"id": "5",
			"fileNombre": "documento5",
			"filePath": "C%3A%5CUsers%5Ciperez.SERVER_ORDAS%5CDocuments%5CVarios%5C3AKBBXCS45DN63584.pdf",
			"activeFile": "1"
		}
	]
  },
  {
    "id": 3,
    "persona": "fisica",
    "nombre": "REBECA",
    "apPaterno": "NICHOLSON",
    "apMaterno": "CASTRO",
    "rfc": "XXXXXXXXXXX",
    "fecNac": "01/01/2010",
    "edoCivil": "soltero",
    "nacionalidad": "mexicano",
    "ocup": "ingeniero",
    "gender": "1",
    "tel": "123456789",
    "email": "prueba@grupordas.com.mx",
    "accPlac": "1",
	"direccionCliente": [
		{
			"tipDirec": "Particular",
			"calle": "Andador Allende",
			"tipDirec": "Particular",
			"numero": "1",
			"cp": "55040",
			"col": "Zurich",
			"delMun": "Miguel Hidalgo",
			"estado": "Mexico",
			"tel": "55151288212"
		}
    ],
	"contacGo": [
		{
			"id": "1",
			"nombre": "Ivan",
			"apPaterno": "Perez",
			"apMaterno": "Rivero",
			"rfc": "XXXXXX",
			"direccionContacto": [
				{
					"tipDirec": "Particular",
					"calle": "Andador Allende",
					"tipDirec": "Particular",
					"numero": "1",
					"cp": "55040",
					"col": "Zurich",
					"delMun": "Miguel Hidalgo",
					"estado": "Mexico",
					"tel": "55151288212"
				}
			]
		}
    ],
	"documentsGo": [
		{
			"id": "1",
			"fileNombre": "documento1",
			"filePath": "C%3A%5CUsers%5Ciperez.SERVER_ORDAS%5CDocuments%5CVarios%5C3AKBBXCS45DN63584.pdf",
			"activeFile": "1"
		},
		{
			"id": "2",
			"fileNombre": "documento2",
			"filePath": "C%3A%5CUsers%5Ciperez.SERVER_ORDAS%5CDocuments%5CVarios%5C3AKBBXCS45DN63584.pdf",
			"activeFile": "1"
		},
		{
			"id": "3",
			"fileNombre": "documento3",
			"filePath": "C%3A%5CUsers%5Ciperez.SERVER_ORDAS%5CDocuments%5CVarios%5C3AKBBXCS45DN63584.pdf",
			"activeFile": "1"
		},
		{
			"id": "4",
			"fileNombre": "documento4",
			"filePath": "C%3A%5CUsers%5Ciperez.SERVER_ORDAS%5CDocuments%5CVarios%5C3AKBBXCS45DN63584.pdf",
			"activeFile": "1"
		},
		{
			"id": "5",
			"fileNombre": "documento5",
			"filePath": "C%3A%5CUsers%5Ciperez.SERVER_ORDAS%5CDocuments%5CVarios%5C3AKBBXCS45DN63584.pdf",
			"activeFile": "1"
		}
	]

  },
  {
    "id": 4,
    "persona": "fisica",
    "nombre": "JOSE ANTONIO",
	"apPaterno": "RAMIREZ",
	"apMaterno": "CALLEJAS",
	"rfc": "XXXXXXXXXXX",
	"fecNac": "01/01/2010",
	"edoCivil": "soltero",
	"nacionalidad": "mexicano",
	"ocup": "ingeniero",
	"gender": "0",
	"tel": "123456789",
	"email": "prueba@grupordas.com.mx",
	"accPlac": "1",
	"direccionCliente": [
		{
			"tipDirec": "Particular",
			"calle": "Andador Allende",
			"tipDirec": "Particular",
			"numero": "1",
			"cp": "55040",
			"col": "Zurich",
			"delMun": "Miguel Hidalgo",
			"estado": "Mexico",
			"tel": "55151288212"
		}
    ],
	"contacGo": [
		{
			"id": "1",
			"nombre": "Ivan",
			"apPaterno": "Perez",
			"apMaterno": "Rivero",
			"rfc": "XXXXXX",
			"direccionContacto": [
				{
					"tipDirec": "Particular",
					"calle": "Andador Allende",
					"tipDirec": "Particular",
					"numero": "1",
					"cp": "55040",
					"col": "Zurich",
					"delMun": "Miguel Hidalgo",
					"estado": "Mexico",
					"tel": "55151288212"
				}
			]
		}
    ],
	"documentsGo": [
		{
			"id": "1",
			"fileNombre": "documento1",
			"filePath": "C%3A%5CUsers%5Ciperez.SERVER_ORDAS%5CDocuments%5CVarios%5C3AKBBXCS45DN63584.pdf",
			"activeFile": "1"
		},
		{
			"id": "2",
			"fileNombre": "documento2",
			"filePath": "C%3A%5CUsers%5Ciperez.SERVER_ORDAS%5CDocuments%5CVarios%5C3AKBBXCS45DN63584.pdf",
			"activeFile": "1"
		},
		{
			"id": "3",
			"fileNombre": "documento3",
			"filePath": "C%3A%5CUsers%5Ciperez.SERVER_ORDAS%5CDocuments%5CVarios%5C3AKBBXCS45DN63584.pdf",
			"activeFile": "1"
		},
		{
			"id": "4",
			"fileNombre": "documento4",
			"filePath": "C%3A%5CUsers%5Ciperez.SERVER_ORDAS%5CDocuments%5CVarios%5C3AKBBXCS45DN63584.pdf",
			"activeFile": "1"
		},
		{
			"id": "5",
			"fileNombre": "documento5",
			"filePath": "C%3A%5CUsers%5Ciperez.SERVER_ORDAS%5CDocuments%5CVarios%5C3AKBBXCS45DN63584.pdf",
			"activeFile": "1"
		}
	]
  },
  {
    "id": 5,
    "persona": "fisica",
    "nombre": "JOSE LUIS",
	"apPaterno": "ESCAMIROSA",
	"apMaterno": "RAMON",
	"rfc": "XXXXXXXXXXX",
	"fecNac": "01/01/2010",
	"edoCivil": "soltero",
	"nacionalidad": "mexicano",
	"ocup": "ingeniero",
	"gender": "0",
	"tel": "123456789",
	"email": "prueba@grupordas.com.mx",
	"accPlac": "1",
	"direccionCliente": [
		{
			"tipDirec": "Particular",
			"calle": "Andador Allende",
			"tipDirec": "Particular",
			"numero": "1",
			"cp": "55040",
			"col": "Zurich",
			"delMun": "Miguel Hidalgo",
			"estado": "Mexico",
			"tel": "55151288212"
		}
    ],
	"contacGo": [
		{
			"id": "1",
			"nombre": "Ivan",
			"apPaterno": "Perez",
			"apMaterno": "Rivero",
			"rfc": "XXXXXX",
			"direccionContacto": [
				{
					"tipDirec": "Particular",
					"calle": "Andador Allende",
					"tipDirec": "Particular",
					"numero": "1",
					"cp": "55040",
					"col": "Zurich",
					"delMun": "Miguel Hidalgo",
					"estado": "Mexico",
					"tel": "55151288212"
				}
			]
		}
    ],
	"documentsGo": [
		{
			"id": "1",
			"fileNombre": "documento1",
			"filePath": "C%3A%5CUsers%5Ciperez.SERVER_ORDAS%5CDocuments%5CVarios%5C3AKBBXCS45DN63584.pdf",
			"activeFile": "1"
		},
		{
			"id": "2",
			"fileNombre": "documento2",
			"filePath": "C%3A%5CUsers%5Ciperez.SERVER_ORDAS%5CDocuments%5CVarios%5C3AKBBXCS45DN63584.pdf",
			"activeFile": "1"
		},
		{
			"id": "3",
			"fileNombre": "documento3",
			"filePath": "C%3A%5CUsers%5Ciperez.SERVER_ORDAS%5CDocuments%5CVarios%5C3AKBBXCS45DN63584.pdf",
			"activeFile": "1"
		},
		{
			"id": "4",
			"fileNombre": "documento4",
			"filePath": "C%3A%5CUsers%5Ciperez.SERVER_ORDAS%5CDocuments%5CVarios%5C3AKBBXCS45DN63584.pdf",
			"activeFile": "1"
		},
		{
			"id": "5",
			"fileNombre": "documento5",
			"filePath": "C%3A%5CUsers%5Ciperez.SERVER_ORDAS%5CDocuments%5CVarios%5C3AKBBXCS45DN63584.pdf",
			"activeFile": "1"
		}
	]

  }
  
  
  
  
]